"Nom, Prénom",Email,Téléphone,Portable,Bureau,Adresse,Ville,Code Postal,Pays,Date du dernier RDV,Dernier RDV,Commentaire
SERREAU Mikael,mikael@gazoleen.com,0186270021,0664521601,,10 avenue des Mondaults,Floirac,33270,France,16∕01∕2018,Ramonage,Passage tous les six mois
SERREAU Mikael,mikael@gazoleen.com,0186270021,0664521601,,10 avenue des Mondaults,Floirac,33270,France,16∕01∕2018,Ramonage,Passage tous les six mois
SERREAU Mikael,mikael@gazoleen.com,0186270021,0664521601,,10 avenue des Mondaults,Floirac,33270,France,16∕01∕2018,Ramonage,Passage tous les six mois
SERREAU Mikael,mikael@gazoleen.com,0186270021,0664521601,,10 avenue des Mondaults,Floirac,33270,France,16∕01∕2018,Ramonage,Passage tous les six mois
SERREAU Mikael,mikael@gazoleen.com,0186270021,0664521601,,10 avenue des Mondaults,Floirac,33270,France,16∕01∕2018,Ramonage,Passage tous les six mois
SERREAU Mikael,mikael@gazoleen.com,0186270021,0664521601,,10 avenue des Mondaults,Floirac,33270,France,16∕01∕2018,Ramonage,Passage tous les six mois
SERREAU Mikael,mikael@gazoleen.com,0186270021,0664521601,,10 avenue des Mondaults,Floirac,33270,France,16∕01∕2018,Ramonage,Passage tous les six mois
SERREAU Mikael,mikael@gazoleen.com,0186270021,0664521601,,10 avenue des Mondaults,Floirac,33270,France,16∕01∕2018,Ramonage,Passage tous les six mois
SERREAU Mikael,mikael@gazoleen.com,0186270021,0664521601,,10 avenue des Mondaults,Floirac,33270,France,16∕01∕2018,Ramonage,Passage tous les six mois
